27.33.78.15 2020-07-22T11:43:32+10:00
173.252.83.119 2020-07-22T11:46:16+10:00
173.252.83.4 2020-07-22T11:46:16+10:00
173.252.83.4 2020-07-22T11:46:18+10:00
173.252.95.30 2020-07-22T11:46:18+10:00
66.220.149.118 2020-07-22T11:46:19+10:00
66.220.149.27 2020-07-22T11:46:21+10:00
173.252.87.14 2020-07-22T11:46:23+10:00
49.179.0.186 2020-07-22T11:48:02+10:00
202.92.108.87 2020-07-22T11:57:43+10:00
120.17.48.140 2020-07-22T12:08:57+10:00
203.87.72.108 2020-07-22T12:12:26+10:00
114.75.119.166 2020-07-22T12:21:39+10:00
49.191.11.78 2020-07-22T13:45:29+10:00
124.168.85.139 2020-07-22T14:29:00+10:00
155.143.24.214 2020-07-22T16:23:53+10:00
1.143.123.242 2020-07-22T16:39:06+10:00
149.167.145.242 2020-07-22T17:17:21+10:00
49.194.149.160 2020-07-22T18:00:51+10:00
139.218.131.7 2020-07-22T20:04:42+10:00
173.252.79.5 2020-07-23T05:58:56+10:00
173.252.79.113 2020-07-23T05:58:58+10:00
110.20.88.96 2020-07-23T10:15:11+10:00
120.152.5.118 2020-07-28T14:09:17+10:00
175.37.113.202 2020-07-28T14:15:49+10:00
175.37.113.202 2020-07-28T14:16:03+10:00
175.37.113.202 2020-07-28T14:16:42+10:00
175.37.113.202 2020-07-28T14:24:59+10:00
175.37.113.202 2020-07-28T14:27:38+10:00
175.37.113.202 2020-07-28T14:37:10+10:00
175.37.113.202 2020-07-28T14:47:02+10:00
175.37.113.202 2020-07-28T14:49:35+10:00
175.37.113.202 2020-07-28T14:49:35+10:00
175.37.113.202 2020-07-28T14:52:25+10:00
175.37.113.202 2020-07-28T15:02:45+10:00
175.37.113.202 2020-07-28T15:10:59+10:00
175.37.113.202 2020-07-28T15:15:30+10:00
27.33.78.15 2020-07-29T11:27:57+10:00
220.233.193.23 2020-07-29T18:50:33+10:00
49.180.161.133 2020-08-03T17:56:00+10:00
27.33.78.15 2020-08-05T12:11:50+10:00
27.33.78.15 2020-08-05T12:12:35+10:00
27.33.78.15 2020-08-05T12:13:30+10:00
27.33.78.15 2020-08-05T12:15:47+10:00
27.33.78.15 2020-08-05T12:16:35+10:00
120.17.173.230 2020-08-05T12:19:45+10:00
173.252.95.113 2020-08-09T11:35:15+10:00
49.2.125.8 2020-08-09T11:40:08+10:00
101.112.89.141 2020-08-09T20:59:52+10:00
66.220.149.15 2020-08-09T22:21:14+10:00
31.13.115.18 2020-08-09T22:21:15+10:00
31.13.115.5 2020-08-09T22:21:15+10:00
119.18.2.169 2020-08-17T10:29:50+10:00
120.17.166.101 2020-08-17T10:56:17+10:00
1.129.111.160 2020-09-11T15:16:25+10:00
58.108.164.164 2020-09-11T15:16:29+10:00
120.152.0.21 2020-09-11T15:16:54+10:00
173.252.95.15 2020-09-11T15:30:26+10:00
173.252.95.29 2020-09-11T15:30:29+10:00
173.252.87.11 2020-09-11T15:36:23+10:00
173.252.87.118 2020-09-11T15:36:23+10:00
31.13.115.117 2020-09-11T15:36:37+10:00
173.252.87.19 2020-09-11T15:36:47+10:00
173.252.95.6 2020-09-11T15:36:59+10:00
31.13.127.118 2020-09-11T15:37:08+10:00
173.252.127.28 2020-09-11T15:37:16+10:00
173.252.107.112 2020-09-11T15:37:27+10:00
173.252.95.20 2020-09-11T15:43:03+10:00
173.252.95.2 2020-09-11T15:44:01+10:00
